%YAML 1.1
%TAG !u! tag:unity3d.com,2011:
--- !u!74 &7400000
AnimationClip:
  m_ObjectHideFlags: 0
  m_PrefabParentObject: {fileID: 0}
  m_PrefabInternal: {fileID: 0}
  m_Name: TiltTilt
  serializedVersion: 6
  m_Legacy: 0
  m_Compressed: 0
  m_UseHighQualityCurve: 1
  m_RotationCurves:
  - curve:
      serializedVersion: 2
      m_Curve:
      - serializedVersion: 2
        time: 0
        value: {x: 0, y: 0, z: 0.026176952, w: 0.99965733}
        inSlope: {x: 0, y: 0, z: -0.1112027, w: 0.0027054546}
        outSlope: {x: 0, y: 0, z: -0.1112027, w: 0.0027054546}
        tangentMode: 0
      - serializedVersion: 2
        time: 0.033333335
        value: {x: 0, y: 0, z: 0.022470195, w: 0.9997475}
        inSlope: {x: 0, y: 0, z: -0.11679145, w: 0.0026035307}
        outSlope: {x: 0, y: 0, z: -0.11679145, w: 0.0026035307}
        tangentMode: 0
      - serializedVersion: 2
        time: 0.06666667
        value: {x: 0, y: 0, z: 0.018390855, w: 0.9998309}
        inSlope: {x: 0, y: 0, z: -0.12657309, w: 0.0023102758}
        outSlope: {x: 0, y: 0, z: -0.12657309, w: 0.0023102758}
        tangentMode: 0
      - serializedVersion: 2
        time: 0.10000001
        value: {x: 0, y: 0, z: 0.014031988, w: 0.99990153}
        inSlope: {x: 0, y: 0, z: -0.13356245, w: 0.001861453}
        outSlope: {x: 0, y: 0, z: -0.13356245, w: 0.001861453}
        tangentMode: 0
      - serializedVersion: 2
        time: 0.13333334
        value: {x: 0, y: 0, z: 0.009486691, w: 0.999955}
        inSlope: {x: 0, y: 0, z: -0.13775808, w: 0.0013008715}
        outSlope: {x: 0, y: 0, z: -0.13775808, w: 0.0013008715}
        tangentMode: 0
      - serializedVersion: 2
        time: 0.16666667
        value: {x: 0, y: 0, z: 0.0048481165, w: 0.99998826}
        inSlope: {x: 0, y: 0, z: -0.13915879, w: 0.00067502266}
        outSlope: {x: 0, y: 0, z: -0.13915879, w: 0.00067502266}
        tangentMode: 0
      - serializedVersion: 2
        time: 0.2
        value: {x: 0, y: 0, z: 0.00020943892, w: 1}
        inSlope: {x: 0, y: 0, z: -0.13776416, w: 0.000034868717}
        outSlope: {x: 0, y: 0, z: -0.13776416, w: 0.000034868717}
        tangentMode: 0
      - serializedVersion: 2
        time: 0.23333333
        value: {x: 0, y: 0, z: -0.0043361606, w: 0.9999906}
        inSlope: {x: 0, y: 0, z: -0.13357422, w: -0.00056684}
        outSlope: {x: 0, y: 0, z: -0.13357422, w: -0.00056684}
        tangentMode: 0
      - serializedVersion: 2
        time: 0.26666668
        value: {x: 0, y: 0, z: -0.008695511, w: 0.9999622}
        inSlope: {x: 0, y: 0, z: -0.12658955, w: -0.0010827183}
        outSlope: {x: 0, y: 0, z: -0.12658955, w: -0.0010827183}
        tangentMode: 0
      - serializedVersion: 2
        time: 0.3
        value: {x: 0, y: 0, z: -0.012775466, w: 0.9999184}
        inSlope: {x: 0, y: 0, z: -0.116811186, w: -0.0014707447}
        outSlope: {x: 0, y: 0, z: -0.116811186, w: -0.0014707447}
        tangentMode: 0
      - serializedVersion: 2
        time: 0.33333334
        value: {x: 0, y: 0, z: -0.016482923, w: 0.99986416}
        inSlope: {x: 0, y: 0, z: -0.10424037, w: -0.0016942621}
        outSlope: {x: 0, y: 0, z: -0.10424037, w: -0.0016942621}
        tangentMode: 0
      - serializedVersion: 2
        time: 0.36666667
        value: {x: 0, y: 0, z: -0.019724824, w: 0.99980545}
        inSlope: {x: 0, y: 0, z: -0.08887853, w: -0.0017291309}
        outSlope: {x: 0, y: 0, z: -0.08887853, w: -0.0017291309}
        tangentMode: 0
      - serializedVersion: 2
        time: 0.4
        value: {x: 0, y: 0, z: -0.022408158, w: 0.9997489}
        inSlope: {x: 0, y: 0, z: -0.0707267, w: -0.0015619398}
        outSlope: {x: 0, y: 0, z: -0.0707267, w: -0.0015619398}
        tangentMode: 0
      - serializedVersion: 2
        time: 0.43333334
        value: {x: 0, y: 0, z: -0.024439937, w: 0.9997013}
        inSlope: {x: 0, y: 0, z: -0.049785577, w: -0.0011980535}
        outSlope: {x: 0, y: 0, z: -0.049785577, w: -0.0011980535}
        tangentMode: 0
      - serializedVersion: 2
        time: 0.46666667
        value: {x: 0, y: 0, z: -0.025727196, w: 0.999669}
        inSlope: {x: 0, y: 0, z: -0.026055232, w: -0.0006598235}
        outSlope: {x: 0, y: 0, z: -0.026055232, w: -0.0006598235}
        tangentMode: 0
      - serializedVersion: 2
        time: 0.5
        value: {x: 0, y: 0, z: -0.026176952, w: 0.99965733}
        inSlope: {x: 0, y: 0, z: -0.0000000060535967, w: -1.6007107e-10}
        outSlope: {x: 0, y: 0, z: -0.0000000060535967, w: -1.6007107e-10}
        tangentMode: 0
      - serializedVersion: 2
        time: 0.53333336
        value: {x: 0, y: 0, z: -0.025727196, w: 0.999669}
        inSlope: {x: 0, y: 0, z: 0.026055291, w: 0.00065982284}
        outSlope: {x: 0, y: 0, z: 0.026055291, w: 0.00065982284}
        tangentMode: 0
      - serializedVersion: 2
        time: 0.5666667
        value: {x: 0, y: 0, z: -0.02443993, w: 0.9997013}
        inSlope: {x: 0, y: 0, z: 0.049785666, w: 0.0011980524}
        outSlope: {x: 0, y: 0, z: 0.049785666, w: 0.0011980524}
        tangentMode: 0
      - serializedVersion: 2
        time: 0.6000001
        value: {x: 0, y: 0, z: -0.022408148, w: 0.9997489}
        inSlope: {x: 0, y: 0, z: 0.070726745, w: 0.0015619384}
        outSlope: {x: 0, y: 0, z: 0.070726745, w: 0.0015619384}
        tangentMode: 0
      - serializedVersion: 2
        time: 0.63333344
        value: {x: 0, y: 0, z: -0.01972481, w: 0.99980545}
        inSlope: {x: 0, y: 0, z: 0.08887856, w: 0.0017291293}
        outSlope: {x: 0, y: 0, z: 0.08887856, w: 0.0017291293}
        tangentMode: 0
      - serializedVersion: 2
        time: 0.6666668
        value: {x: 0, y: 0, z: -0.016482906, w: 0.99986416}
        inSlope: {x: 0, y: 0, z: 0.1042404, w: 0.0016942606}
        outSlope: {x: 0, y: 0, z: 0.1042404, w: 0.0016942606}
        tangentMode: 0
      - serializedVersion: 2
        time: 0.70000017
        value: {x: 0, y: 0, z: -0.012775444, w: 0.9999184}
        inSlope: {x: 0, y: 0, z: 0.11681123, w: 0.0014707434}
        outSlope: {x: 0, y: 0, z: 0.11681123, w: 0.0014707434}
        tangentMode: 0
      - serializedVersion: 2
        time: 0.7333335
        value: {x: 0, y: 0, z: -0.008695484, w: 0.9999622}
        inSlope: {x: 0, y: 0, z: 0.12658963, w: 0.0010827174}
        outSlope: {x: 0, y: 0, z: 0.12658963, w: 0.0010827174}
        tangentMode: 0
      - serializedVersion: 2
        time: 0.7666669
        value: {x: 0, y: 0, z: -0.004336129, w: 0.9999906}
        inSlope: {x: 0, y: 0, z: 0.13357428, w: 0.0005668397}
        outSlope: {x: 0, y: 0, z: 0.13357428, w: 0.0005668397}
        tangentMode: 0
      - serializedVersion: 2
        time: 0.80000025
        value: {x: 0, y: 0, z: 0.00020947428, w: 1}
        inSlope: {x: 0, y: 0, z: 0.13776416, w: -0.000034868688}
        outSlope: {x: 0, y: 0, z: 0.13776416, w: -0.000034868688}
        tangentMode: 0
      - serializedVersion: 2
        time: 0.8333336
        value: {x: 0, y: 0, z: 0.0048481557, w: 0.99998826}
        inSlope: {x: 0, y: 0, z: 0.13915883, w: -0.000675022}
        outSlope: {x: 0, y: 0, z: 0.13915883, w: -0.000675022}
        tangentMode: 0
      - serializedVersion: 2
        time: 0.866667
        value: {x: 0, y: 0, z: 0.009486738, w: 0.999955}
        inSlope: {x: 0, y: 0, z: 0.13775803, w: -0.0013008703}
        outSlope: {x: 0, y: 0, z: 0.13775803, w: -0.0013008703}
        tangentMode: 0
      - serializedVersion: 2
        time: 0.90000033
        value: {x: 0, y: 0, z: 0.014032032, w: 0.99990153}
        inSlope: {x: 0, y: 0, z: 0.13356234, w: -0.0018614514}
        outSlope: {x: 0, y: 0, z: 0.13356234, w: -0.0018614514}
        tangentMode: 0
      - serializedVersion: 2
        time: 0.9333337
        value: {x: 0, y: 0, z: 0.018390901, w: 0.9998309}
        inSlope: {x: 0, y: 0, z: 0.126573, w: -0.0023102742}
        outSlope: {x: 0, y: 0, z: 0.126573, w: -0.0023102742}
        tangentMode: 0
      - serializedVersion: 2
        time: 0.96666706
        value: {x: 0, y: 0, z: 0.02247024, w: 0.9997475}
        inSlope: {x: 0, y: 0, z: 0.11679135, w: -0.0026035458}
        outSlope: {x: 0, y: 0, z: 0.11679135, w: -0.0026035458}
        tangentMode: 0
      - serializedVersion: 2
        time: 1
        value: {x: 0, y: 0, z: 0.026176952, w: 0.99965733}
        inSlope: {x: 0, y: 0, z: 0.111202665, w: -0.0027054865}
        outSlope: {x: 0, y: 0, z: 0.111202665, w: -0.0027054865}
        tangentMode: 0
      m_PreInfinity: 2
      m_PostInfinity: 2
      m_RotationOrder: 4
    path: 
  m_CompressedRotationCurves: []
  m_EulerCurves: []
  m_PositionCurves: []
  m_ScaleCurves: []
  m_FloatCurves: []
  m_PPtrCurves: []
  m_SampleRate: 30
  m_WrapMode: 0
  m_Bounds:
    m_Center: {x: 0, y: 0, z: 0}
    m_Extent: {x: 0, y: 0, z: 0}
  m_ClipBindingConstant:
    genericBindings:
    - path: 0
      attribute: 2
      script: {fileID: 0}
      classID: 4
      customType: 0
      isPPtrCurve: 0
    pptrCurveMapping: []
  m_AnimationClipSettings:
    serializedVersion: 2
    m_AdditiveReferencePoseClip: {fileID: 0}
    m_AdditiveReferencePoseTime: 0
    m_StartTime: 0
    m_StopTime: 1
    m_OrientationOffsetY: 0
    m_Level: 0
    m_CycleOffset: 0
    m_HasAdditiveReferencePose: 0
    m_LoopTime: 1
    m_LoopBlend: 0
    m_LoopBlendOrientation: 0
    m_LoopBlendPositionY: 0
    m_LoopBlendPositionXZ: 0
    m_KeepOriginalOrientation: 0
    m_KeepOriginalPositionY: 1
    m_KeepOriginalPositionXZ: 0
    m_HeightFromFeet: 0
    m_Mirror: 0
  m_EditorCurves:
  - curve:
      serializedVersion: 2
      m_Curve:
      - serializedVersion: 2
        time: 0
        value: 0
        inSlope: 0
        outSlope: 0
        tangentMode: 0
      - serializedVersion: 2
        time: 0.033333335
        value: 0
        inSlope: 0
        outSlope: 0
        tangentMode: 0
      - serializedVersion: 2
        time: 0.06666667
        value: 0
        inSlope: 0
        outSlope: 0
        tangentMode: 0
      - serializedVersion: 2
        time: 0.10000001
        value: 0
        inSlope: 0
        outSlope: 0
        tangentMode: 0
      - serializedVersion: 2
        time: 0.13333334
        value: 0
        inSlope: 0
        outSlope: 0
        tangentMode: 0
      - serializedVersion: 2
        time: 0.16666667
        value: 0
        inSlope: 0
        outSlope: 0
        tangentMode: 0
      - serializedVersion: 2
        time: 0.2
        value: 0
        inSlope: 0
        outSlope: 0
        tangentMode: 0
      - serializedVersion: 2
        time: 0.23333333
        value: 0
        inSlope: 0
        outSlope: 0
        tangentMode: 0
      - serializedVersion: 2
        time: 0.26666668
        value: 0
        inSlope: 0
        outSlope: 0
        tangentMode: 0
      - serializedVersion: 2
        time: 0.3
        value: 0
        inSlope: 0
        outSlope: 0
        tangentMode: 0
      - serializedVersion: 2
        time: 0.33333334
        value: 0
        inSlope: 0
        outSlope: 0
        tangentMode: 0
      - serializedVersion: 2
        time: 0.36666667
        value: 0
        inSlope: 0
        outSlope: 0
        tangentMode: 0
      - serializedVersion: 2
        time: 0.4
        value: 0
        inSlope: 0
        outSlope: 0
        tangentMode: 0
      - serializedVersion: 2
        time: 0.43333334
        value: 0
        inSlope: 0
        outSlope: 0
        tangentMode: 0
      - serializedVersion: 2
        time: 0.46666667
        value: 0
        inSlope: 0
        outSlope: 0
        tangentMode: 0
      - serializedVersion: 2
        time: 0.5
        value: 0
        inSlope: 0
        outSlope: 0
        tangentMode: 0
      - serializedVersion: 2
        time: 0.53333336
        value: 0
        inSlope: 0
        outSlope: 0
        tangentMode: 0
      - serializedVersion: 2
        time: 0.5666667
        value: 0
        inSlope: 0
        outSlope: 0
        tangentMode: 0
      - serializedVersion: 2
        time: 0.6000001
        value: 0
        inSlope: 0
        outSlope: 0
        tangentMode: 0
      - serializedVersion: 2
        time: 0.63333344
        value: 0
        inSlope: 0
        outSlope: 0
        tangentMode: 0
      - serializedVersion: 2
        time: 0.6666668
        value: 0
        inSlope: 0
        outSlope: 0
        tangentMode: 0
      - serializedVersion: 2
        time: 0.70000017
        value: 0
        inSlope: 0
        outSlope: 0
        tangentMode: 0
      - serializedVersion: 2
        time: 0.7333335
        value: 0
        inSlope: 0
        outSlope: 0
        tangentMode: 0
      - serializedVersion: 2
        time: 0.7666669
        value: 0
        inSlope: 0
        outSlope: 0
        tangentMode: 0
      - serializedVersion: 2
        time: 0.80000025
        value: 0
        inSlope: 0
        outSlope: 0
        tangentMode: 0
      - serializedVersion: 2
        time: 0.8333336
        value: 0
        inSlope: 0
        outSlope: 0
        tangentMode: 0
      - serializedVersion: 2
        time: 0.866667
        value: 0
        inSlope: 0
        outSlope: 0
        tangentMode: 0
      - serializedVersion: 2
        time: 0.90000033
        value: 0
        inSlope: 0
        outSlope: 0
        tangentMode: 0
      - serializedVersion: 2
        time: 0.9333337
        value: 0
        inSlope: 0
        outSlope: 0
        tangentMode: 0
      - serializedVersion: 2
        time: 0.96666706
        value: 0
        inSlope: 0
        outSlope: 0
        tangentMode: 0
      - serializedVersion: 2
        time: 1
        value: 0
        inSlope: 0
        outSlope: 0
        tangentMode: 0
      m_PreInfinity: 2
      m_PostInfinity: 2
      m_RotationOrder: 4
    attribute: m_LocalRotation.x
    path: 
    classID: 224
    script: {fileID: 0}
  - curve:
      serializedVersion: 2
      m_Curve:
      - serializedVersion: 2
        time: 0
        value: 0
        inSlope: 0
        outSlope: 0
        tangentMode: 0
      - serializedVersion: 2
        time: 0.033333335
        value: 0
        inSlope: 0
        outSlope: 0
        tangentMode: 0
      - serializedVersion: 2
        time: 0.06666667
        value: 0
        inSlope: 0
        outSlope: 0
        tangentMode: 0
      - serializedVersion: 2
        time: 0.10000001
        value: 0
        inSlope: 0
        outSlope: 0
        tangentMode: 0
      - serializedVersion: 2
        time: 0.13333334
        value: 0
        inSlope: 0
        outSlope: 0
        tangentMode: 0
      - serializedVersion: 2
        time: 0.16666667
        value: 0
        inSlope: 0
        outSlope: 0
        tangentMode: 0
      - serializedVersion: 2
        time: 0.2
        value: 0
        inSlope: 0
        outSlope: 0
        tangentMode: 0
      - serializedVersion: 2
        time: 0.23333333
        value: 0
        inSlope: 0
        outSlope: 0
        tangentMode: 0
      - serializedVersion: 2
        time: 0.26666668
        value: 0
        inSlope: 0
        outSlope: 0
        tangentMode: 0
      - serializedVersion: 2
        time: 0.3
        value: 0
        inSlope: 0
        outSlope: 0
        tangentMode: 0
      - serializedVersion: 2
        time: 0.33333334
        value: 0
        inSlope: 0
        outSlope: 0
        tangentMode: 0
      - serializedVersion: 2
        time: 0.36666667
        value: 0
        inSlope: 0
        outSlope: 0
        tangentMode: 0
      - serializedVersion: 2
        time: 0.4
        value: 0
        inSlope: 0
        outSlope: 0
        tangentMode: 0
      - serializedVersion: 2
        time: 0.43333334
        value: 0
        inSlope: 0
        outSlope: 0
        tangentMode: 0
      - serializedVersion: 2
        time: 0.46666667
        value: 0
        inSlope: 0
        outSlope: 0
        tangentMode: 0
      - serializedVersion: 2
        time: 0.5
        value: 0
        inSlope: 0
        outSlope: 0
        tangentMode: 0
      - serializedVersion: 2
        time: 0.53333336
        value: 0
        inSlope: 0
        outSlope: 0
        tangentMode: 0
      - serializedVersion: 2
        time: 0.5666667
        value: 0
        inSlope: 0
        outSlope: 0
        tangentMode: 0
      - serializedVersion: 2
        time: 0.6000001
        value: 0
        inSlope: 0
        outSlope: 0
        tangentMode: 0
      - serializedVersion: 2
        time: 0.63333344
        value: 0
        inSlope: 0
        outSlope: 0
        tangentMode: 0
      - serializedVersion: 2
        time: 0.6666668
        value: 0
        inSlope: 0
        outSlope: 0
        tangentMode: 0
      - serializedVersion: 2
        time: 0.70000017
        value: 0
        inSlope: 0
        outSlope: 0
        tangentMode: 0
      - serializedVersion: 2
        time: 0.7333335
        value: 0
        inSlope: 0
        outSlope: 0
        tangentMode: 0
      - serializedVersion: 2
        time: 0.7666669
        value: 0
        inSlope: 0
        outSlope: 0
        tangentMode: 0
      - serializedVersion: 2
        time: 0.80000025
        value: 0
        inSlope: 0
        outSlope: 0
        tangentMode: 0
      - serializedVersion: 2
        time: 0.8333336
        value: 0
        inSlope: 0
        outSlope: 0
        tangentMode: 0
      - serializedVersion: 2
        time: 0.866667
        value: 0
        inSlope: 0
        outSlope: 0
        tangentMode: 0
      - serializedVersion: 2
        time: 0.90000033
        value: 0
        inSlope: 0
        outSlope: 0
        tangentMode: 0
      - serializedVersion: 2
        time: 0.9333337
        value: 0
        inSlope: 0
        outSlope: 0
        tangentMode: 0
      - serializedVersion: 2
        time: 0.96666706
        value: 0
        inSlope: 0
        outSlope: 0
        tangentMode: 0
      - serializedVersion: 2
        time: 1
        value: 0
        inSlope: 0
        outSlope: 0
        tangentMode: 0
      m_PreInfinity: 2
      m_PostInfinity: 2
      m_RotationOrder: 4
    attribute: m_LocalRotation.y
    path: 
    classID: 224
    script: {fileID: 0}
  - curve:
      serializedVersion: 2
      m_Curve:
      - serializedVersion: 2
        time: 0
        value: 0.026176952
        inSlope: -0.1112027
        outSlope: -0.1112027
        tangentMode: 0
      - serializedVersion: 2
        time: 0.033333335
        value: 0.022470195
        inSlope: -0.11679145
        outSlope: -0.11679145
        tangentMode: 0
      - serializedVersion: 2
        time: 0.06666667
        value: 0.018390855
        inSlope: -0.12657309
        outSlope: -0.12657309
        tangentMode: 0
      - serializedVersion: 2
        time: 0.10000001
        value: 0.014031988
        inSlope: -0.13356245
        outSlope: -0.13356245
        tangentMode: 0
      - serializedVersion: 2
        time: 0.13333334
        value: 0.009486691
        inSlope: -0.13775808
        outSlope: -0.13775808
        tangentMode: 0
      - serializedVersion: 2
        time: 0.16666667
        value: 0.0048481165
        inSlope: -0.13915879
        outSlope: -0.13915879
        tangentMode: 0
      - serializedVersion: 2
        time: 0.2
        value: 0.00020943892
        inSlope: -0.13776416
        outSlope: -0.13776416
        tangentMode: 0
      - serializedVersion: 2
        time: 0.23333333
        value: -0.0043361606
        inSlope: -0.13357422
        outSlope: -0.13357422
        tangentMode: 0
      - serializedVersion: 2
        time: 0.26666668
        value: -0.008695511
        inSlope: -0.12658955
        outSlope: -0.12658955
        tangentMode: 0
      - serializedVersion: 2
        time: 0.3
        value: -0.012775466
        inSlope: -0.116811186
        outSlope: -0.116811186
        tangentMode: 0
      - serializedVersion: 2
        time: 0.33333334
        value: -0.016482923
        inSlope: -0.10424037
        outSlope: -0.10424037
        tangentMode: 0
      - serializedVersion: 2
        time: 0.36666667
        value: -0.019724824
        inSlope: -0.08887853
        outSlope: -0.08887853
        tangentMode: 0
      - serializedVersion: 2
        time: 0.4
        value: -0.022408158
        inSlope: -0.0707267
        outSlope: -0.0707267
        tangentMode: 0
      - serializedVersion: 2
        time: 0.43333334
        value: -0.024439937
        inSlope: -0.049785577
        outSlope: -0.049785577
        tangentMode: 0
      - serializedVersion: 2
        time: 0.46666667
        value: -0.025727196
        inSlope: -0.026055232
        outSlope: -0.026055232
        tangentMode: 0
      - serializedVersion: 2
        time: 0.5
        value: -0.026176952
        inSlope: -0.0000000060535967
        outSlope: -0.0000000060535967
        tangentMode: 0
      - serializedVersion: 2
        time: 0.53333336
        value: -0.025727196
        inSlope: 0.026055291
        outSlope: 0.026055291
        tangentMode: 0
      - serializedVersion: 2
        time: 0.5666667
        value: -0.02443993
        inSlope: 0.049785666
        outSlope: 0.049785666
        tangentMode: 0
      - serializedVersion: 2
        time: 0.6000001
        value: -0.022408148
        inSlope: 0.070726745
        outSlope: 0.070726745
        tangentMode: 0
      - serializedVersion: 2
        time: 0.63333344
        value: -0.01972481
        inSlope: 0.08887856
        outSlope: 0.08887856
        tangentMode: 0
      - serializedVersion: 2
        time: 0.6666668
        value: -0.016482906
        inSlope: 0.1042404
        outSlope: 0.1042404
        tangentMode: 0
      - serializedVersion: 2
        time: 0.70000017
        value: -0.012775444
        inSlope: 0.11681123
        outSlope: 0.11681123
        tangentMode: 0
      - serializedVersion: 2
        time: 0.7333335
        value: -0.008695484
        inSlope: 0.12658963
        outSlope: 0.12658963
        tangentMode: 0
      - serializedVersion: 2
        time: 0.7666669
        value: -0.004336129
        inSlope: 0.13357428
        outSlope: 0.13357428
        tangentMode: 0
      - serializedVersion: 2
        time: 0.80000025
        value: 0.00020947428
        inSlope: 0.13776416
        outSlope: 0.13776416
        tangentMode: 0
      - serializedVersion: 2
        time: 0.8333336
        value: 0.0048481557
        inSlope: 0.13915883
        outSlope: 0.13915883
        tangentMode: 0
      - serializedVersion: 2
        time: 0.866667
        value: 0.009486738
        inSlope: 0.13775803
        outSlope: 0.13775803
        tangentMode: 0
      - serializedVersion: 2
        time: 0.90000033
        value: 0.014032032
        inSlope: 0.13356234
        outSlope: 0.13356234
        tangentMode: 0
      - serializedVersion: 2
        time: 0.9333337
        value: 0.018390901
        inSlope: 0.126573
        outSlope: 0.126573
        tangentMode: 0
      - serializedVersion: 2
        time: 0.96666706
        value: 0.02247024
        inSlope: 0.11679135
        outSlope: 0.11679135
        tangentMode: 0
      - serializedVersion: 2
        time: 1
        value: 0.026176952
        inSlope: 0.111202665
        outSlope: 0.111202665
        tangentMode: 0
      m_PreInfinity: 2
      m_PostInfinity: 2
      m_RotationOrder: 4
    attribute: m_LocalRotation.z
    path: 
    classID: 224
    script: {fileID: 0}
  - curve:
      serializedVersion: 2
      m_Curve:
      - serializedVersion: 2
        time: 0
        value: 0.99965733
        inSlope: 0.0027054546
        outSlope: 0.0027054546
        tangentMode: 0
      - serializedVersion: 2
        time: 0.033333335
        value: 0.9997475
        inSlope: 0.0026035307
        outSlope: 0.0026035307
        tangentMode: 0
      - serializedVersion: 2
        time: 0.06666667
        value: 0.9998309
        inSlope: 0.0023102758
        outSlope: 0.0023102758
        tangentMode: 0
      - serializedVersion: 2
        time: 0.10000001
        value: 0.99990153
        inSlope: 0.001861453
        outSlope: 0.001861453
        tangentMode: 0
      - serializedVersion: 2
        time: 0.13333334
        value: 0.999955
        inSlope: 0.0013008715
        outSlope: 0.0013008715
        tangentMode: 0
      - serializedVersion: 2
        time: 0.16666667
        value: 0.99998826
        inSlope: 0.00067502266
        outSlope: 0.00067502266
        tangentMode: 0
      - serializedVersion: 2
        time: 0.2
        value: 1
        inSlope: 0.000034868717
        outSlope: 0.000034868717
        tangentMode: 0
      - serializedVersion: 2
        time: 0.23333333
        value: 0.9999906
        inSlope: -0.00056684
        outSlope: -0.00056684
        tangentMode: 0
      - serializedVersion: 2
        time: 0.26666668
        value: 0.9999622
        inSlope: -0.0010827183
        outSlope: -0.0010827183
        tangentMode: 0
      - serializedVersion: 2
        time: 0.3
        value: 0.9999184
        inSlope: -0.0014707447
        outSlope: -0.0014707447
        tangentMode: 0
      - serializedVersion: 2
        time: 0.33333334
        value: 0.99986416
        inSlope: -0.0016942621
        outSlope: -0.0016942621
        tangentMode: 0
      - serializedVersion: 2
        time: 0.36666667
        value: 0.99980545
        inSlope: -0.0017291309
        outSlope: -0.0017291309
        tangentMode: 0
      - serializedVersion: 2
        time: 0.4
        value: 0.9997489
        inSlope: -0.0015619398
        outSlope: -0.0015619398
        tangentMode: 0
      - serializedVersion: 2
        time: 0.43333334
        value: 0.9997013
        inSlope: -0.0011980535
        outSlope: -0.0011980535
        tangentMode: 0
      - serializedVersion: 2
        time: 0.46666667
        value: 0.999669
        inSlope: -0.0006598235
        outSlope: -0.0006598235
        tangentMode: 0
      - serializedVersion: 2
        time: 0.5
        value: 0.99965733
        inSlope: -1.6007107e-10
        outSlope: -1.6007107e-10
        tangentMode: 0
      - serializedVersion: 2
        time: 0.53333336
        value: 0.999669
        inSlope: 0.00065982284
        outSlope: 0.00065982284
        tangentMode: 0
      - serializedVersion: 2
        time: 0.5666667
        value: 0.9997013
        inSlope: 0.0011980524
        outSlope: 0.0011980524
        tangentMode: 0
      - serializedVersion: 2
        time: 0.6000001
        value: 0.9997489
        inSlope: 0.0015619384
        outSlope: 0.0015619384
        tangentMode: 0
      - serializedVersion: 2
        time: 0.63333344
        value: 0.99980545
        inSlope: 0.0017291293
        outSlope: 0.0017291293
        tangentMode: 0
      - serializedVersion: 2
        time: 0.6666668
        value: 0.99986416
        inSlope: 0.0016942606
        outSlope: 0.0016942606
        tangentMode: 0
      - serializedVersion: 2
        time: 0.70000017
        value: 0.9999184
        inSlope: 0.0014707434
        outSlope: 0.0014707434
        tangentMode: 0
      - serializedVersion: 2
        time: 0.7333335
        value: 0.9999622
        inSlope: 0.0010827174
        outSlope: 0.0010827174
        tangentMode: 0
      - serializedVersion: 2
        time: 0.7666669
        value: 0.9999906
        inSlope: 0.0005668397
        outSlope: 0.0005668397
        tangentMode: 0
      - serializedVersion: 2
        time: 0.80000025
        value: 1
        inSlope: -0.000034868688
        outSlope: -0.000034868688
        tangentMode: 0
      - serializedVersion: 2
        time: 0.8333336
        value: 0.99998826
        inSlope: -0.000675022
        outSlope: -0.000675022
        tangentMode: 0
      - serializedVersion: 2
        time: 0.866667
        value: 0.999955
        inSlope: -0.0013008703
        outSlope: -0.0013008703
        tangentMode: 0
      - serializedVersion: 2
        time: 0.90000033
        value: 0.99990153
        inSlope: -0.0018614514
        outSlope: -0.0018614514
        tangentMode: 0
      - serializedVersion: 2
        time: 0.9333337
        value: 0.9998309
        inSlope: -0.0023102742
        outSlope: -0.0023102742
        tangentMode: 0
      - serializedVersion: 2
        time: 0.96666706
        value: 0.9997475
        inSlope: -0.0026035458
        outSlope: -0.0026035458
        tangentMode: 0
      - serializedVersion: 2
        time: 1
        value: 0.99965733
        inSlope: -0.0027054865
        outSlope: -0.0027054865
        tangentMode: 0
      m_PreInfinity: 2
      m_PostInfinity: 2
      m_RotationOrder: 4
    attribute: m_LocalRotation.w
    path: 
    classID: 224
    script: {fileID: 0}
  m_EulerEditorCurves:
  - curve:
      serializedVersion: 2
      m_Curve:
      - serializedVersion: 2
        time: 0
        value: 0
        inSlope: 0
        outSlope: 0
        tangentMode: 34
      - serializedVersion: 2
        time: 0.5
        value: 0
        inSlope: 0
        outSlope: 0
        tangentMode: 34
      - serializedVersion: 2
        time: 1
        value: 0
        inSlope: 0
        outSlope: 0
        tangentMode: 34
      m_PreInfinity: 2
      m_PostInfinity: 2
      m_RotationOrder: 4
    attribute: localEulerAnglesBaked.x
    path: 
    classID: 224
    script: {fileID: 0}
  - curve:
      serializedVersion: 2
      m_Curve:
      - serializedVersion: 2
        time: 0
        value: 0
        inSlope: 0
        outSlope: 0
        tangentMode: 34
      - serializedVersion: 2
        time: 0.5
        value: 0
        inSlope: 0
        outSlope: 0
        tangentMode: 34
      - serializedVersion: 2
        time: 1
        value: 0
        inSlope: 0
        outSlope: 0
        tangentMode: 34
      m_PreInfinity: 2
      m_PostInfinity: 2
      m_RotationOrder: 4
    attribute: localEulerAnglesBaked.y
    path: 
    classID: 224
    script: {fileID: 0}
  - curve:
      serializedVersion: 2
      m_Curve:
      - serializedVersion: 2
        time: 0
        value: 3
        inSlope: -12
        outSlope: -12
        tangentMode: 34
      - serializedVersion: 2
        time: 0.5
        value: -3
        inSlope: 0
        outSlope: 0
        tangentMode: 34
      - serializedVersion: 2
        time: 1
        value: 3
        inSlope: 12
        outSlope: 12
        tangentMode: 34
      m_PreInfinity: 2
      m_PostInfinity: 2
      m_RotationOrder: 4
    attribute: localEulerAnglesBaked.z
    path: 
    classID: 224
    script: {fileID: 0}
  m_HasGenericRootTransform: 1
  m_HasMotionFloatCurves: 0
  m_GenerateMotionCurves: 0
  m_IsEmpty: 0
  m_Events: []
